{
  "page": 1,
  "per_page": 10,
  "total": 200,
  "total_pages": 20,
  "data": [
    {
      "university": "Massachusetts Institute of Technology (MIT)",
      "rank_display": "1",
      "score": 100,
      "type": "Private",
      "student_faculty_ratio": 4,
      "international_students": "3,730",
      "faculty_count": "3,065",
      "location": {
        "city": "Cambridge",
        "country": "United States",
        "region": "North America"
      }
    },
    {
      "university": "University of Oxford",
      "rank_display": "2",
      "score": 99.5,
      "type": "Public",
      "student_faculty_ratio": 3,
      "international_students": "8,442",
      "faculty_count": "6,708",
      "location": {
        "city": "Oxford",
        "country": "United Kingdom",
        "region": "Europe"
      }
    },
    {
      "university": "Stanford University",
      "rank_display": "3",
      "score": 98.7,
      "type": "Private",
      "student_faculty_ratio": 3,
      "international_students": "3,879",
      "faculty_count": "4,725",
      "location": {
        "city": "Stanford",
        "country": "United States",
        "region": "North America"
      }
    },
    {
      "university": "University of Cambridge",
      "rank_display": "3",
      "score": 98.7,
      "type": "Public",
      "student_faculty_ratio": 4,
      "international_students": "7,925",
      "faculty_count": "5,800",
      "location": {
        "city": "Cambridge",
        "country": "United Kingdom",
        "region": "Europe"
      }
    },
    {
      "university": "Harvard University",
      "rank_display": "5",
      "score": 98,
      "type": "Private",
      "student_faculty_ratio": 5,
      "international_students": "5,877",
      "faculty_count": "4,646",
      "location": {
        "city": "Cambridge",
        "country": "United States",
        "region": "North America"
      }
    },
    {
      "university": "California Institute of Technology (Caltech)",
      "rank_display": "6",
      "score": 97.4,
      "type": "Private",
      "student_faculty_ratio": 2,
      "international_students": "692",
      "faculty_count": "968",
      "location": {
        "city": "Pasadena",
        "country": "United States",
        "region": "North America"
      }
    },
    {
      "university": "Imperial College London",
      "rank_display": "7",
      "score": 97.3,
      "type": "Public",
      "student_faculty_ratio": 5,
      "international_students": "11,143",
      "faculty_count": "8,000",
      "location": {
        "city": "London",
        "country": "United Kingdom",
        "region": "Europe"
      }
    },
    {
      "university": "ETH Zurich - Swiss Federal Institute of Technology",
      "rank_display": "8",
      "score": 95.4,
      "type": "Public",
      "student_faculty_ratio": 7,
      "international_students": "7,733",
      "faculty_count": "2,719",
      "location": {
        "city": "Zürich",
        "country": "Switzerland",
        "region": "Europe"
      }
    },
    {
      "university": "UCL",
      "rank_display": "8",
      "score": 95.4,
      "type": "Public",
      "student_faculty_ratio": 5,
      "international_students": "21,824",
      "faculty_count": "7,195",
      "location": {
        "city": "London",
        "country": "United Kingdom",
        "region": "Europe"
      }
    },
    {
      "university": "University of Chicago",
      "rank_display": "10",
      "score": 94.5,
      "type": "Private",
      "student_faculty_ratio": 6,
      "international_students": "4,696",
      "faculty_count": "2,703",
      "location": {
        "city": "Chicago",
        "country": "United States",
        "region": "North America"
      }
    }
  ]
}